<svg width="1045" height="72" viewBox="0 0 1045 72" fill="none" xmlns="http://www.w3.org/2000/svg">
<path d="M2.34898 69H0.348985V71H2.34898V69ZM2.34898 2.97499V0.974995H0.348985V2.97499H2.34898ZM10.329 2.97499H12.329V0.974995H10.329V2.97499ZM10.329 31.76H8.32899V33.76H10.329V31.76ZM20.494 31.475L20.8416 33.4446H20.8416L20.494 31.475ZM23.629 30.24L24.689 31.936L24.7023 31.9277L24.7155 31.9191L23.629 30.24ZM26.574 27.295L28.2124 28.4419L28.2255 28.4233L28.2381 28.4044L26.574 27.295ZM28.854 22.07L30.7727 22.6343L30.7768 22.6206L30.7806 22.6068L28.854 22.07ZM34.174 2.97499V0.974995H32.655L32.2474 2.43822L34.174 2.97499ZM41.679 2.97499L43.6124 3.48678L44.2773 0.974995H41.679V2.97499ZM36.549 22.355L38.4776 22.8844L38.4801 22.8756L38.4824 22.8668L36.549 22.355ZM33.034 30.525L34.6906 31.6456L34.6981 31.6345L34.7054 31.6234L33.034 30.525ZM27.809 34.8L27.1588 32.9086L21.5719 34.8291L27.1765 36.6974L27.809 34.8ZM33.889 39.55L32.1824 40.5929L32.189 40.6037L32.1957 40.6143L33.889 39.55ZM37.214 47.815L35.2737 48.3001L35.277 48.3133L35.2805 48.3265L37.214 47.815ZM42.819 69V71H45.417L44.7525 68.4885L42.819 69ZM34.554 69L32.6153 69.4916L32.9979 71H34.554V69ZM29.519 49.145L31.4576 48.6534L31.456 48.6469L29.519 49.145ZM27.334 43.825L25.6121 44.8425L25.6398 44.8892L25.6699 44.9344L27.334 43.825ZM24.579 40.69L23.379 42.29L23.412 42.3147L23.4459 42.3381L24.579 40.69ZM21.349 39.265L20.9151 41.2174L20.9674 41.229L21.0202 41.2378L21.349 39.265ZM10.329 38.885V36.885H8.32899V38.885H10.329ZM10.329 69V71H12.329V69H10.329ZM4.34898 69V2.97499H0.348985V69H4.34898ZM2.34898 4.97499H10.329V0.974995H2.34898V4.97499ZM8.32899 2.97499V31.76H12.329V2.97499H8.32899ZM10.329 33.76H17.359V29.76H10.329V33.76ZM17.359 33.76C18.4976 33.76 19.6591 33.6532 20.8416 33.4446L20.1464 29.5054C19.1756 29.6768 18.2471 29.76 17.359 29.76V33.76ZM20.8416 33.4446C22.1936 33.206 23.4783 32.6927 24.689 31.936L22.569 28.544C21.753 29.054 20.9477 29.364 20.1464 29.5054L20.8416 33.4446ZM24.7155 31.9191C26.0483 31.0567 27.2075 29.8775 28.2124 28.4419L24.9355 26.1481C24.1671 27.2458 23.363 28.03 22.5425 28.5609L24.7155 31.9191ZM28.2381 28.4044C29.2717 26.854 30.1036 24.9094 30.7727 22.6343L26.9353 21.5057C26.3377 23.5372 25.6496 25.076 24.9099 26.1856L28.2381 28.4044ZM30.7806 22.6068L36.1006 3.51177L32.2474 2.43822L26.9274 21.5332L30.7806 22.6068ZM34.174 4.97499H41.679V0.974995H34.174V4.97499ZM39.7456 2.46321L34.6156 21.8432L38.4824 22.8668L43.6124 3.48678L39.7456 2.46321ZM34.6203 21.8256C33.7752 24.9042 32.6786 27.424 31.3626 29.4266L34.7054 31.6234C36.3027 29.1927 37.5494 26.2658 38.4776 22.8844L34.6203 21.8256ZM31.3774 29.4044C30.1107 31.277 28.6939 32.3809 27.1588 32.9086L28.4591 36.6914C30.9774 35.8257 33.044 34.0797 34.6906 31.6456L31.3774 29.4044ZM27.1765 36.6974C29.4129 37.4428 31.048 38.7366 32.1824 40.5929L35.5956 38.5071C33.9433 35.8034 31.5251 33.9305 28.4414 32.9026L27.1765 36.6974ZM32.1957 40.6143C33.449 42.6082 34.4872 45.1543 35.2737 48.3001L39.1543 47.3299C38.2941 43.8891 37.1157 40.9252 35.5823 38.4857L32.1957 40.6143ZM35.2805 48.3265L40.8855 69.5115L44.7525 68.4885L39.1475 47.3035L35.2805 48.3265ZM42.819 67H34.554V71H42.819V67ZM36.4926 68.5084L31.4576 48.6534L27.5803 49.6366L32.6153 69.4916L36.4926 68.5084ZM31.456 48.6469C30.8521 46.2985 30.0506 44.2944 28.9981 42.7156L25.6699 44.9344C26.3907 46.0156 27.0459 47.5581 27.582 49.6431L31.456 48.6469ZM29.0558 42.8075C28.1292 41.2393 27.0284 39.9469 25.712 39.0419L23.4459 42.3381C24.1563 42.8264 24.8921 43.624 25.6121 44.8425L29.0558 42.8075ZM25.779 39.09C24.5344 38.1566 23.1634 37.5398 21.6778 37.2922L21.0202 41.2378C21.8146 41.3702 22.5969 41.7034 23.379 42.29L25.779 39.09ZM21.7828 37.3126C20.4961 37.0267 19.1788 36.885 17.834 36.885V40.885C18.8958 40.885 19.9219 40.9966 20.9151 41.2174L21.7828 37.3126ZM17.834 36.885H10.329V40.885H17.834V36.885ZM8.32899 38.885V69H12.329V38.885H8.32899ZM10.329 67H2.34898V71H10.329V67ZM129.837 69L127.91 69.5365L128.318 71H129.837V69ZM125.657 53.99L127.583 53.4535L127.176 51.99H125.657V53.99ZM104.567 53.99V51.99H103.038L102.637 53.4648L104.567 53.99ZM100.482 69V71H102.01L102.412 69.5252L100.482 69ZM92.4068 69L90.486 68.4425L89.7438 71H92.4068V69ZM111.597 2.88V0.879996H110.095L109.676 2.32254L111.597 2.88ZM118.722 2.88L120.642 2.32L120.222 0.879996H118.722V2.88ZM138.007 69V71H140.673L139.927 68.44L138.007 69ZM119.007 29.765L117.068 30.256L117.075 30.2832L117.083 30.3102L119.007 29.765ZM115.302 15.135L117.241 14.644L116.858 13.135H115.302V15.135ZM114.922 15.135V13.135H113.368L112.984 14.641L114.922 15.135ZM111.217 29.67L113.142 30.2124L113.149 30.1883L113.155 30.164L111.217 29.67ZM106.372 46.865L104.447 46.3226L103.73 48.865H106.372V46.865ZM123.852 46.865V48.865H126.497L125.776 46.3198L123.852 46.865ZM131.763 68.4635L127.583 53.4535L123.73 54.5265L127.91 69.5365L131.763 68.4635ZM125.657 51.99H104.567V55.99H125.657V51.99ZM102.637 53.4648L98.5519 68.4748L102.412 69.5252L106.497 54.5152L102.637 53.4648ZM100.482 67H92.4068V71H100.482V67ZM94.3275 69.5575L113.518 3.43745L109.676 2.32254L90.486 68.4425L94.3275 69.5575ZM111.597 4.88H118.722V0.879996H111.597V4.88ZM116.802 3.44L136.087 69.56L139.927 68.44L120.642 2.32L116.802 3.44ZM138.007 67H129.837V71H138.007V67ZM120.946 29.274L117.241 14.644L113.363 15.626L117.068 30.256L120.946 29.274ZM115.302 13.135H114.922V17.135H115.302V13.135ZM112.984 14.641L109.279 29.176L113.155 30.164L116.86 15.629L112.984 14.641ZM109.292 29.1276L104.447 46.3226L108.297 47.4074L113.142 30.2124L109.292 29.1276ZM106.372 48.865H123.852V44.865H106.372V48.865ZM125.776 46.3198L120.931 29.2198L117.083 30.3102L121.928 47.4102L125.776 46.3198ZM192.163 69H190.163V71H192.163V69ZM192.163 2.97499V0.974995H190.163V2.97499H192.163ZM200.143 2.97499H202.143V0.974995H200.143V2.97499ZM200.143 31.76H198.143V33.76H200.143V31.76ZM210.308 31.475L210.656 33.4446L210.308 31.475ZM213.443 30.24L214.503 31.936L214.517 31.9277L214.53 31.9191L213.443 30.24ZM216.388 27.295L218.027 28.4419L218.04 28.4233L218.053 28.4044L216.388 27.295ZM218.668 22.07L220.587 22.6343L220.591 22.6206L220.595 22.6068L218.668 22.07ZM223.988 2.97499V0.974995H222.469L222.062 2.43822L223.988 2.97499ZM231.493 2.97499L233.427 3.48678L234.092 0.974995H231.493V2.97499ZM226.363 22.355L228.292 22.8844L228.295 22.8756L228.297 22.8668L226.363 22.355ZM222.848 30.525L224.505 31.6456L224.512 31.6345L224.52 31.6234L222.848 30.525ZM217.623 34.8L216.973 32.9086L211.386 34.8291L216.991 36.6974L217.623 34.8ZM223.703 39.55L221.997 40.5929L222.003 40.6037L222.01 40.6143L223.703 39.55ZM227.028 47.815L225.088 48.3001L225.091 48.3133L225.095 48.3265L227.028 47.815ZM232.633 69V71H235.231L234.567 68.4885L232.633 69ZM224.368 69L222.43 69.4916L222.812 71H224.368V69ZM219.333 49.145L221.272 48.6534L221.27 48.6469L219.333 49.145ZM217.148 43.825L215.427 44.8425L215.454 44.8892L215.484 44.9344L217.148 43.825ZM214.393 40.69L213.193 42.29L213.226 42.3147L213.26 42.3381L214.393 40.69ZM211.163 39.265L210.73 41.2174L210.782 41.229L210.835 41.2378L211.163 39.265ZM200.143 38.885V36.885H198.143V38.885H200.143ZM200.143 69V71H202.143V69H200.143ZM194.163 69V2.97499H190.163V69H194.163ZM192.163 4.97499H200.143V0.974995H192.163V4.97499ZM198.143 2.97499V31.76H202.143V2.97499H198.143ZM200.143 33.76H207.173V29.76H200.143V33.76ZM207.173 33.76C208.312 33.76 209.474 33.6532 210.656 33.4446L209.961 29.5054C208.99 29.6768 208.062 29.76 207.173 29.76V33.76ZM210.656 33.4446C212.008 33.206 213.293 32.6927 214.503 31.936L212.383 28.544C211.567 29.054 210.762 29.364 209.961 29.5054L210.656 33.4446ZM214.53 31.9191C215.863 31.0567 217.022 29.8775 218.027 28.4419L214.75 26.1481C213.982 27.2458 213.177 28.03 212.357 28.5609L214.53 31.9191ZM218.053 28.4044C219.086 26.854 219.918 24.9094 220.587 22.6343L216.75 21.5057C216.152 23.5372 215.464 25.076 214.724 26.1856L218.053 28.4044ZM220.595 22.6068L225.915 3.51177L222.062 2.43822L216.742 21.5332L220.595 22.6068ZM223.988 4.97499H231.493V0.974995H223.988V4.97499ZM229.56 2.46321L224.43 21.8432L228.297 22.8668L233.427 3.48678L229.56 2.46321ZM224.435 21.8256C223.59 24.9042 222.493 27.424 221.177 29.4266L224.52 31.6234C226.117 29.1927 227.364 26.2658 228.292 22.8844L224.435 21.8256ZM221.192 29.4044C219.925 31.277 218.508 32.3809 216.973 32.9086L218.274 36.6914C220.792 35.8257 222.858 34.0797 224.505 31.6456L221.192 29.4044ZM216.991 36.6974C219.227 37.4428 220.862 38.7366 221.997 40.5929L225.41 38.5071C223.758 35.8034 221.34 33.9305 218.256 32.9026L216.991 36.6974ZM222.01 40.6143C223.263 42.6082 224.302 45.1543 225.088 48.3001L228.969 47.3299C228.109 43.8891 226.93 40.9252 225.397 38.4857L222.01 40.6143ZM225.095 48.3265L230.7 69.5115L234.567 68.4885L228.962 47.3035L225.095 48.3265ZM232.633 67H224.368V71H232.633V67ZM226.307 68.5084L221.272 48.6534L217.395 49.6366L222.43 69.4916L226.307 68.5084ZM221.27 48.6469C220.667 46.2985 219.865 44.2944 218.813 42.7156L215.484 44.9344C216.205 46.0156 216.86 47.5581 217.396 49.6431L221.27 48.6469ZM218.87 42.8075C217.944 41.2393 216.843 39.9469 215.526 39.0419L213.26 42.3381C213.971 42.8264 214.707 43.624 215.427 44.8425L218.87 42.8075ZM215.593 39.09C214.349 38.1566 212.978 37.5398 211.492 37.2922L210.835 41.2378C211.629 41.3702 212.411 41.7034 213.193 42.29L215.593 39.09ZM211.597 37.3126C210.311 37.0267 208.993 36.885 207.648 36.885V40.885C208.71 40.885 209.736 40.9966 210.73 41.2174L211.597 37.3126ZM207.648 36.885H200.143V40.885H207.648V36.885ZM198.143 38.885V69H202.143V38.885H198.143ZM200.143 67H192.163V71H200.143V67ZM384.628 69H382.628V71H384.628V69ZM384.628 9.815H386.628V7.815H384.628V9.815ZM362.872 9.815V7.815H360.872V9.815H362.872ZM362.872 69V71H364.872V69H362.872ZM354.987 69H352.987V71H354.987V69ZM354.987 2.88V0.879996H352.987V2.88H354.987ZM392.608 2.88H394.608V0.879996H392.608V2.88ZM392.608 69V71H394.608V69H392.608ZM386.628 69V9.815H382.628V69H386.628ZM384.628 7.815H362.872V11.815H384.628V7.815ZM360.872 9.815V69H364.872V9.815H360.872ZM362.872 67H354.987V71H362.872V67ZM356.987 69V2.88H352.987V69H356.987ZM354.987 4.88H392.608V0.879996H354.987V4.88ZM390.608 2.88V69H394.608V2.88H390.608ZM392.608 67H384.628V71H392.608V67ZM487.74 57.98L489.6 58.7143L489.603 58.7062L489.606 58.698L487.74 57.98ZM483.75 64.25L485.164 65.6642L485.177 65.6514L485.189 65.6383L483.75 64.25ZM477.575 68.24L478.282 70.1106L478.296 70.1055L478.309 70.1003L477.575 68.24ZM460.855 67.86L461.693 66.0441L460.855 67.86ZM454.775 63.3L453.193 64.5243L453.215 64.5528L453.238 64.5804L454.775 63.3ZM451.45 56.555L453.378 56.0247L451.45 56.555ZM451.45 15.23L453.367 15.7999L451.45 15.23ZM454.775 8.865L456.336 10.1144V10.1144L454.775 8.865ZM460.76 4.21L461.636 6.00798L460.76 4.21ZM478.43 4.115L477.573 5.92247L477.582 5.92674L477.591 5.93092L478.43 4.115ZM484.51 8.675L482.973 9.95536L482.984 9.96821L482.995 9.98087L484.51 8.675ZM480.52 18.555L478.569 18.9982L478.579 19.04L478.59 19.0812L480.52 18.555ZM478.715 14.565L477.038 15.655L477.056 15.6838L477.076 15.7119L478.715 14.565ZM475.295 11.335L474.202 13.0102L474.228 13.0272L474.255 13.0434L475.295 11.335ZM464.085 11.24L465.069 12.9811L465.097 12.9652L465.125 12.9484L464.085 11.24ZM460.57 14.375L462.18 15.5614L462.194 15.5418L462.208 15.5219L460.57 14.375ZM458.67 18.365L456.734 17.8602L456.724 17.8999L456.715 17.9401L458.67 18.365ZM458.195 22.355H456.195V22.3623L458.195 22.355ZM458.29 48.48H460.29L460.29 48.4727L458.29 48.48ZM458.86 53.895L456.907 54.3289L456.917 54.3721L456.928 54.4149L458.86 53.895ZM460.95 58.265L459.35 59.465L459.364 59.4848L459.38 59.5043L460.95 58.265ZM464.56 61.21L463.634 62.9832L463.68 63.0068L463.726 63.0281L464.56 61.21ZM474.25 61.495L474.962 63.364L474.984 63.3553L475.007 63.3461L474.25 61.495ZM477.765 59.12L476.35 57.7058L476.328 57.7286L476.306 57.7521L477.765 59.12ZM480.14 55.415L478.305 54.6175L478.291 54.6516L478.277 54.6862L480.14 55.415ZM487.165 49.715C487.165 52.5456 486.723 55.0526 485.873 57.262L489.606 58.698C490.656 55.9674 491.165 52.9644 491.165 49.715H487.165ZM485.879 57.2457C485.02 59.4214 483.829 61.2862 482.31 62.8617L485.189 65.6383C487.09 63.6672 488.559 61.352 489.6 58.7143L485.879 57.2457ZM482.335 62.8358C480.832 64.3388 479.01 65.5231 476.84 66.3797L478.309 70.1003C480.952 69.0569 483.247 67.5812 485.164 65.6642L482.335 62.8358ZM476.867 66.3694C474.779 67.1596 472.426 67.57 469.785 67.57V71.57C472.844 71.57 475.684 71.0937 478.282 70.1106L476.867 66.3694ZM469.785 67.57C466.512 67.57 463.837 67.0338 461.693 66.0441L460.016 69.6759C462.812 70.9662 466.09 71.57 469.785 71.57V67.57ZM461.693 66.0441C459.465 65.0159 457.686 63.6695 456.311 62.0196L453.238 64.5804C455.03 66.7305 457.304 68.424 460.016 69.6759L461.693 66.0441ZM456.356 62.0757C455.005 60.3306 454.01 58.3211 453.378 56.0247L449.521 57.0853C450.283 59.8556 451.504 62.3427 453.193 64.5243L456.356 62.0757ZM453.378 56.0247C452.732 53.6743 452.405 51.1933 452.405 48.575H448.405C448.405 51.53 448.774 54.3691 449.521 57.0853L453.378 56.0247ZM452.405 48.575V22.07H448.405V48.575H452.405ZM452.405 22.07C452.405 20.065 452.719 17.9771 453.367 15.7999L449.533 14.6601C448.786 17.1695 448.405 19.6416 448.405 22.07H452.405ZM453.367 15.7999C453.99 13.7027 454.978 11.812 456.336 10.1144L453.213 7.61561C451.531 9.71803 450.302 12.0706 449.533 14.6601L453.367 15.7999ZM456.336 10.1144C457.649 8.47406 459.397 7.09835 461.636 6.00798L459.884 2.41202C457.182 3.7283 454.941 5.45593 453.213 7.61561L456.336 10.1144ZM461.636 6.00798C463.765 4.97043 466.456 4.405 469.785 4.405V0.404997C466.02 0.404997 462.694 1.04289 459.884 2.41202L461.636 6.00798ZM469.785 4.405C472.92 4.405 475.495 4.9378 477.573 5.92247L479.286 2.30752C476.551 1.01219 473.363 0.404997 469.785 0.404997V4.405ZM477.591 5.93092C479.819 6.95905 481.598 8.30552 482.973 9.95536L486.046 7.39462C484.254 5.24448 481.98 3.55095 479.268 2.29908L477.591 5.93092ZM482.995 9.98087C484.402 11.6127 485.443 13.4677 486.122 15.562L489.927 14.328C489.086 11.7357 487.784 9.4106 486.024 7.36912L482.995 9.98087ZM486.122 15.562C486.819 17.7108 487.165 19.8778 487.165 22.07H491.165C491.165 19.4489 490.75 16.8658 489.927 14.328L486.122 15.562ZM487.165 22.07V49.715H491.165V22.07H487.165ZM483.09 22.165C483.09 20.9163 482.858 19.5273 482.449 18.0288L478.59 19.0812C478.941 20.3693 479.09 21.387 479.09 22.165H483.09ZM482.47 18.1118C482.091 16.4458 481.376 14.8794 480.353 13.4181L477.076 15.7119C477.827 16.784 478.315 17.8775 478.569 18.9982L482.47 18.1118ZM480.392 13.475C479.385 11.9265 478.014 10.6489 476.335 9.6266L474.255 13.0434C475.489 13.7944 476.398 14.6702 477.038 15.655L480.392 13.475ZM476.387 9.65977C474.519 8.44117 472.239 7.91 469.69 7.91V11.91C471.7 11.91 473.157 12.3288 474.202 13.0102L476.387 9.65977ZM469.69 7.91C467.163 7.91 464.903 8.40022 463.045 9.5316L465.125 12.9484C466.179 12.3064 467.656 11.91 469.69 11.91V7.91ZM463.1 9.49887C461.406 10.4567 460.003 11.6974 458.931 13.2281L462.208 15.5219C462.91 14.5193 463.85 13.6699 465.069 12.9811L463.1 9.49887ZM458.96 13.1886C457.921 14.5979 457.178 16.1595 456.734 17.8602L460.605 18.8698C460.921 17.6571 461.445 16.5588 462.18 15.5614L458.96 13.1886ZM456.715 17.9401C456.375 19.5048 456.195 20.9797 456.195 22.355H460.195C460.195 21.3236 460.331 20.1386 460.624 18.7899L456.715 17.9401ZM456.195 22.3623L456.29 48.4873L460.29 48.4727L460.195 22.3477L456.195 22.3623ZM456.29 48.48C456.29 50.5137 456.493 52.465 456.907 54.3289L460.812 53.4611C460.466 51.905 460.29 50.2463 460.29 48.48H456.29ZM456.928 54.4149C457.433 56.2882 458.236 57.9796 459.35 59.465L462.55 57.065C461.764 56.0171 461.173 54.7951 460.791 53.3751L456.928 54.4149ZM459.38 59.5043C460.517 60.9446 461.946 62.1022 463.634 62.9832L465.485 59.4368C464.26 58.7978 463.282 57.992 462.519 57.0257L459.38 59.5043ZM463.726 63.0281C465.565 63.8707 467.667 64.255 469.975 64.255V60.255C468.102 60.255 466.595 59.9427 465.393 59.3919L463.726 63.0281ZM469.975 64.255C471.721 64.255 473.389 63.963 474.962 63.364L473.538 59.626C472.45 60.0403 471.268 60.255 469.975 60.255V64.255ZM475.007 63.3461C476.644 62.6765 478.061 61.7279 479.224 60.4879L476.306 57.7521C475.568 58.5387 474.642 59.1735 473.492 59.6439L475.007 63.3461ZM479.179 60.5342C480.405 59.3085 481.341 57.8337 482.002 56.1438L478.277 54.6862C477.798 55.9096 477.151 56.9048 476.35 57.7058L479.179 60.5342ZM481.974 56.2124C482.732 54.4679 483.09 52.5435 483.09 50.475H479.09C479.09 52.0798 478.814 53.4488 478.305 54.6175L481.974 56.2124ZM483.09 50.475V22.165H479.09V50.475H483.09ZM576.761 69H574.761V71H576.761V69ZM576.761 9.815H578.761V7.815H576.761V9.815ZM555.006 9.815V7.815H553.006V9.815H555.006ZM555.006 69V71H557.006V69H555.006ZM547.121 69H545.121V71H547.121V69ZM547.121 2.88V0.879996H545.121V2.88H547.121ZM584.741 2.88H586.741V0.879996H584.741V2.88ZM584.741 69V71H586.741V69H584.741ZM578.761 69V9.815H574.761V69H578.761ZM576.761 7.815H555.006V11.815H576.761V7.815ZM553.006 9.815V69H557.006V9.815H553.006ZM555.006 67H547.121V71H555.006V67ZM549.121 69V2.88H545.121V69H549.121ZM547.121 4.88H584.741V0.879996H547.121V4.88ZM582.741 2.88V69H586.741V2.88H582.741ZM584.741 67H576.761V71H584.741V67ZM676.643 69L674.717 69.5365L675.124 71H676.643V69ZM672.463 53.99L674.39 53.4535L673.983 51.99H672.463V53.99ZM651.373 53.99V51.99H649.845L649.444 53.4648L651.373 53.99ZM647.288 69V71H648.817L649.218 69.5252L647.288 69ZM639.213 69L637.293 68.4425L636.55 71H639.213V69ZM658.403 2.88V0.879996H656.901L656.483 2.32254L658.403 2.88ZM665.528 2.88L667.448 2.32L667.028 0.879996H665.528V2.88ZM684.813 69V71H687.48L686.733 68.44L684.813 69ZM665.813 29.765L663.875 30.256L663.881 30.2832L663.889 30.3102L665.813 29.765ZM662.108 15.135L664.047 14.644L663.665 13.135H662.108V15.135ZM661.728 15.135V13.135H660.174L659.79 14.641L661.728 15.135ZM658.023 29.67L659.948 30.2124L659.955 30.1883L659.961 30.164L658.023 29.67ZM653.178 46.865L651.253 46.3226L650.537 48.865H653.178V46.865ZM670.658 46.865V48.865H673.304L672.583 46.3198L670.658 46.865ZM678.57 68.4635L674.39 53.4535L670.537 54.5265L674.717 69.5365L678.57 68.4635ZM672.463 51.99H651.373V55.99H672.463V51.99ZM649.444 53.4648L645.359 68.4748L649.218 69.5252L653.303 54.5152L649.444 53.4648ZM647.288 67H639.213V71H647.288V67ZM641.134 69.5575L660.324 3.43745L656.483 2.32254L637.293 68.4425L641.134 69.5575ZM658.403 4.88H665.528V0.879996H658.403V4.88ZM663.608 3.44L682.893 69.56L686.733 68.44L667.448 2.32L663.608 3.44ZM684.813 67H676.643V71H684.813V67ZM667.752 29.274L664.047 14.644L660.17 15.626L663.875 30.256L667.752 29.274ZM662.108 13.135H661.728V17.135H662.108V13.135ZM659.79 14.641L656.085 29.176L659.961 30.164L663.666 15.629L659.79 14.641ZM656.098 29.1276L651.253 46.3226L655.103 47.4074L659.948 30.2124L656.098 29.1276ZM653.178 48.865H670.658V44.865H653.178V48.865ZM672.583 46.3198L667.738 29.2198L663.889 30.3102L668.734 47.4102L672.583 46.3198ZM775.45 56.745L777.38 57.2712L777.863 55.5001L776.139 54.8675L775.45 56.745ZM768.8 66.34L769.909 68.0041L769.917 67.9992L768.8 66.34ZM749.04 68.145L748.264 69.9883L748.285 69.997L748.306 70.0053L749.04 68.145ZM742.96 64.06L741.495 65.4209L741.507 65.4342L741.519 65.4473L742.96 64.06ZM739.16 57.79L741.037 57.0986L739.16 57.79ZM739.065 14.28L737.188 13.5886L737.18 13.6105L737.173 13.6326L739.065 14.28ZM742.865 8.105L744.306 9.49228L744.318 9.4792L744.331 9.4659L742.865 8.105ZM748.945 3.92499L748.169 2.08172V2.08172L748.945 3.92499ZM768.705 5.73L767.573 7.37903L767.581 7.38413L767.588 7.38918L768.705 5.73ZM775.45 15.04L776.181 16.9018L777.897 16.2281L777.365 14.4625L775.45 15.04ZM767.945 17.985L766.011 18.494L766.583 20.6679L768.676 19.8468L767.945 17.985ZM764.24 12.19L762.971 13.7354L762.984 13.7463L762.997 13.757L764.24 12.19ZM752.175 11.05L753.003 12.8707L753.02 12.8627L753.038 12.8543L752.175 11.05ZM748.66 13.615L750.16 14.9382V14.9382L748.66 13.615ZM748.66 58.455L747.124 59.7354L747.142 59.7571L747.16 59.7782L748.66 58.455ZM752.175 61.115L751.281 62.9039L751.329 62.9278L751.378 62.9491L752.175 61.115ZM764.145 59.88L762.928 58.2928L762.915 58.3028L762.902 58.313L764.145 59.88ZM767.945 53.99L768.634 52.1125L766.557 51.3501L766.008 53.4932L767.945 53.99ZM773.521 56.2188C772.494 59.9814 770.541 62.7573 767.683 64.6808L769.917 67.9992C773.646 65.4893 776.126 61.8686 777.38 57.2712L773.521 56.2188ZM767.691 64.6759C764.843 66.5741 761.351 67.57 757.115 67.57V71.57C761.999 71.57 766.297 70.4125 769.909 68.0041L767.691 64.6759ZM757.115 67.57C754.352 67.57 751.915 67.1296 749.774 66.2847L748.306 70.0053C750.979 71.0604 753.924 71.57 757.115 71.57V67.57ZM749.816 66.3017C747.635 65.3831 745.841 64.1685 744.401 62.6727L741.519 65.4473C743.372 67.3715 745.632 68.8802 748.264 69.9883L749.816 66.3017ZM744.426 62.6991C742.97 61.131 741.838 59.2722 741.037 57.0986L737.283 58.4814C738.256 61.1212 739.657 63.4423 741.495 65.4209L744.426 62.6991ZM741.037 57.0986C740.242 54.9412 739.83 52.5191 739.83 49.81H735.83C735.83 52.9276 736.305 55.8254 737.283 58.4814L741.037 57.0986ZM739.83 49.81V22.07H735.83V49.81H739.83ZM739.83 22.07C739.83 19.4826 740.212 17.1067 740.957 14.9274L737.173 13.6326C736.272 16.2666 735.83 19.0841 735.83 22.07H739.83ZM740.942 14.9714C741.741 12.8032 742.866 10.9874 744.306 9.49228L741.424 6.71771C739.571 8.64262 738.163 10.9434 737.188 13.5886L740.942 14.9714ZM744.331 9.4659C745.769 7.91648 747.555 6.68035 749.721 5.76826L748.169 2.08172C745.522 3.19631 743.254 4.74685 741.399 6.74409L744.331 9.4659ZM749.721 5.76826C751.845 4.87393 754.298 4.405 757.115 4.405V0.404997C753.852 0.404997 750.858 0.949392 748.169 2.08172L749.721 5.76826ZM757.115 4.405C761.269 4.405 764.724 5.42353 767.573 7.37903L769.837 4.08097C766.226 1.60313 761.954 0.404997 757.115 0.404997V4.405ZM767.588 7.38918C770.479 9.33461 772.458 12.0455 773.535 15.6175L777.365 14.4625C776.035 10.0545 773.518 6.55871 769.822 4.07082L767.588 7.38918ZM774.719 13.1782L767.214 16.1232L768.676 19.8468L776.181 16.9018L774.719 13.1782ZM769.879 17.476C769.143 14.6787 767.68 12.3655 765.483 10.623L762.997 13.757C764.474 14.9279 765.48 16.478 766.011 18.494L769.879 17.476ZM765.51 10.6445C763.284 8.81619 760.415 8.005 757.115 8.005V12.005C759.768 12.005 761.65 12.6505 762.971 13.7354L765.51 10.6445ZM757.115 8.005C755.021 8.005 753.073 8.40355 751.312 9.24573L753.038 12.8543C754.19 12.3031 755.536 12.005 757.115 12.005V8.005ZM751.347 9.22927C749.715 9.9714 748.309 10.99 747.16 12.2918L750.16 14.9382C750.911 14.0866 751.849 13.3953 753.003 12.8707L751.347 9.22927ZM747.16 12.2918C746.026 13.5772 745.172 15.0744 744.586 16.758L748.364 18.072C748.792 16.8423 749.394 15.8062 750.16 14.9382L747.16 12.2918ZM744.586 16.758C744.007 18.4227 743.715 20.133 743.715 21.88H747.715C747.715 20.587 747.93 19.3206 748.364 18.072L744.586 16.758ZM743.715 21.88V50H747.715V21.88H743.715ZM743.715 50C743.715 51.801 744.004 53.5435 744.586 55.217L748.364 53.903C747.933 52.6632 747.715 51.3657 747.715 50H743.715ZM744.586 55.217C745.169 56.8919 746.014 58.4033 747.124 59.7354L750.197 57.1746C749.407 56.2267 748.795 55.1414 748.364 53.903L744.586 55.217ZM747.16 59.7782C748.294 61.0634 749.677 62.1021 751.281 62.9039L753.07 59.3261C751.886 58.7346 750.926 58 750.16 57.1318L747.16 59.7782ZM751.378 62.9491C753.122 63.7077 755.047 64.065 757.115 64.065V60.065C755.51 60.065 754.141 59.789 752.973 59.2809L751.378 62.9491ZM757.115 64.065C760.316 64.065 763.126 63.2407 765.388 61.447L762.902 58.313C761.491 59.4327 759.614 60.065 757.115 60.065V64.065ZM765.362 61.4672C767.641 59.7196 769.146 57.3604 769.882 54.4867L766.008 53.4932C765.478 55.5596 764.449 57.1271 762.928 58.2928L765.362 61.4672ZM767.256 55.8675L774.761 58.6225L776.139 54.8675L768.634 52.1125L767.256 55.8675ZM848.196 10.1V8.1H846.196V10.1H848.196ZM848.196 69V71H850.196V69H848.196ZM840.311 69H838.311V71H840.311V69ZM840.311 10.1H842.311V8.1H840.311V10.1ZM825.206 10.1H823.206V12.1H825.206V10.1ZM825.206 2.88V0.879996H823.206V2.88H825.206ZM863.301 2.88H865.301V0.879996H863.301V2.88ZM863.301 10.1V12.1H865.301V10.1H863.301ZM846.196 10.1V69H850.196V10.1H846.196ZM848.196 67H840.311V71H848.196V67ZM842.311 69V10.1H838.311V69H842.311ZM840.311 8.1H825.206V12.1H840.311V8.1ZM827.206 10.1V2.88H823.206V10.1H827.206ZM825.206 4.88H863.301V0.879996H825.206V4.88ZM861.301 2.88V10.1H865.301V2.88H861.301ZM863.301 8.1H848.196V12.1H863.301V8.1ZM916.912 69H914.912V71H916.912V69ZM916.912 2.88V0.879996H914.912V2.88H916.912ZM924.892 2.88H926.892V0.879996H924.892V2.88ZM924.892 30.43H922.892V32.43H924.892V30.43ZM944.462 31.855L945.18 29.9883L944.462 31.855ZM950.447 35.75L948.977 37.1066L948.991 37.1215L949.005 37.1362L950.447 35.75ZM953.962 41.735L952.059 42.352L952.062 42.3597L952.064 42.3675L953.962 41.735ZM950.067 64.06L951.481 65.4742L950.067 64.06ZM924.892 61.59H922.892V63.59H924.892V61.59ZM944.367 58.36L945.911 59.6314L944.367 58.36ZM946.457 45.155L944.522 45.6598L944.524 45.6706L944.527 45.6812L946.457 45.155ZM944.557 41.355L943.013 42.6264V42.6264L944.557 41.355ZM940.947 38.79L940.149 40.6241L940.163 40.6303L940.178 40.6362L940.947 38.79ZM924.892 37.84V35.84H922.892V37.84H924.892ZM918.912 69V2.88H914.912V69H918.912ZM916.912 4.88H924.892V0.879996H916.912V4.88ZM922.892 2.88V30.43H926.892V2.88H922.892ZM924.892 32.43H935.627V28.43H924.892V32.43ZM935.627 32.43C938.87 32.43 941.559 32.8814 943.744 33.7217L945.18 29.9883C942.424 28.9286 939.224 28.43 935.627 28.43V32.43ZM943.744 33.7217C945.979 34.5813 947.7 35.7226 948.977 37.1066L951.916 34.3934C950.154 32.484 947.885 31.0286 945.18 29.9883L943.744 33.7217ZM949.005 37.1362C950.362 38.5479 951.385 40.2736 952.059 42.352L955.864 41.118C955.018 38.5097 953.698 36.2455 951.888 34.3638L949.005 37.1362ZM952.064 42.3675C952.748 44.4184 953.102 46.7034 953.102 49.24H957.102C957.102 46.3299 956.695 43.6116 955.859 41.1025L952.064 42.3675ZM953.102 49.24C953.102 55.4357 951.512 59.7867 948.653 62.6458L951.481 65.4742C955.335 61.62 957.102 56.0909 957.102 49.24H953.102ZM948.653 62.6458C945.842 65.4559 941.7 67 935.912 67V71C942.41 71 947.704 69.2508 951.481 65.4742L948.653 62.6458ZM935.912 67H916.912V71H935.912V67ZM924.892 63.59H935.532V59.59H924.892V63.59ZM935.532 63.59C939.954 63.59 943.604 62.4319 945.911 59.6314L942.823 57.0886C941.583 58.5947 939.343 59.59 935.532 59.59V63.59ZM945.911 59.6314C948.066 57.0145 949.027 53.5676 949.027 49.525H945.027C945.027 52.9558 944.214 55.3988 942.823 57.0886L945.911 59.6314ZM949.027 49.525C949.027 47.8366 948.815 46.2024 948.386 44.6288L944.527 45.6812C944.858 46.8943 945.027 48.1734 945.027 49.525H949.027ZM948.392 44.6502C947.945 42.9352 947.186 41.4017 946.101 40.0836L943.013 42.6264C943.701 43.4616 944.209 44.4614 944.522 45.6598L948.392 44.6502ZM946.101 40.0836C944.972 38.7132 943.483 37.68 941.716 36.9438L940.178 40.6362C941.451 41.1666 942.368 41.8435 943.013 42.6264L946.101 40.0836ZM941.744 36.9559C939.957 36.1789 937.827 35.84 935.437 35.84V39.84C937.48 39.84 939.023 40.1344 940.149 40.6241L941.744 36.9559ZM935.437 35.84H924.892V39.84H935.437V35.84ZM922.892 37.84V61.59H926.892V37.84H922.892ZM1042.25 23.21L1040.3 22.798L1040.29 22.8478L1040.28 22.8981L1042.25 23.21ZM1041.3 26.63L1039.46 25.8685L1039.44 25.8979L1039.43 25.9277L1041.3 26.63ZM1039.78 29.575L1038.12 28.4656L1038.09 28.5052L1038.07 28.546L1039.78 29.575ZM1037.79 32.71L1039.44 33.8431L1039.45 33.8313L1039.45 33.8194L1037.79 32.71ZM1035.41 35.845L1036.92 37.162L1036.94 37.1395L1036.96 37.1164L1035.41 35.845ZM1032.85 39.075L1031.23 37.904L1031.21 37.9344L1031.19 37.9656L1032.85 39.075ZM1030.85 42.59L1029.05 41.7338L1029.03 41.7735L1029.01 41.8139L1030.85 42.59ZM1030.09 51.9V53.9H1032.09V51.9H1030.09ZM1022.21 51.9H1020.21V53.9H1022.21V51.9ZM1022.97 41.355L1021.07 40.743L1021.06 40.7741L1021.05 40.8056L1022.97 41.355ZM1025.72 36.225L1027.31 37.4444L1027.32 37.4297L1027.33 37.4147L1025.72 36.225ZM1031.71 28.15L1033.32 29.3426L1031.71 28.15ZM1034.37 21.405L1036.37 21.5159L1036.37 21.4605V21.405H1034.37ZM1034.08 17.415L1032.1 17.6852L1032.1 17.6978L1034.08 17.415ZM1032.85 13.71L1031.1 14.6813L1031.11 14.7028L1031.13 14.724L1032.85 13.71ZM1030.09 10.955L1029.09 12.6859V12.6859L1030.09 10.955ZM1021.35 10.86L1022.25 12.6488L1022.27 12.6395L1022.29 12.6298L1021.35 10.86ZM1018.41 13.235L1016.86 11.9738L1016.85 11.9797L1016.85 11.9856L1018.41 13.235ZM1016.6 16.56L1014.72 15.8993V15.8993L1016.6 16.56ZM1015.84 20.36L1015.56 22.3394L1017.73 22.6537L1017.84 20.4599L1015.84 20.36ZM1007.96 19.22L1005.98 18.9557L1005.72 20.9164L1007.67 21.1994L1007.96 19.22ZM1010.14 11.81L1011.92 12.7259L1011.93 12.7152L1011.93 12.7044L1010.14 11.81ZM1014.13 6.49L1012.81 4.98857V4.98857L1014.13 6.49ZM1019.45 3.45L1020.07 5.35341L1020.09 5.34756L1020.1 5.34137L1019.45 3.45ZM1038.36 6.96499L1039.82 5.59711L1038.36 6.96499ZM1022.02 69H1020.02V71H1022.02V69ZM1022.02 60.545V58.545H1020.02V60.545H1022.02ZM1030 60.545H1032V58.545H1030V60.545ZM1030 69V71H1032V69H1030ZM1040.63 19.125C1040.63 20.5376 1040.52 21.7574 1040.3 22.798L1044.21 23.622C1044.5 22.2559 1044.63 20.7524 1044.63 19.125H1040.63ZM1040.28 22.8981C1040.11 23.9543 1039.84 24.9428 1039.46 25.8685L1043.15 27.3915C1043.66 26.1639 1044.02 24.8724 1044.23 23.5219L1040.28 22.8981ZM1039.43 25.9277C1039.11 26.7902 1038.67 27.6359 1038.12 28.4656L1041.45 30.6844C1042.16 29.6141 1042.74 28.4965 1043.18 27.3322L1039.43 25.9277ZM1038.07 28.546C1037.52 29.4633 1036.87 30.4811 1036.13 31.6006L1039.45 33.8194C1040.23 32.6589 1040.91 31.5866 1041.5 30.604L1038.07 28.546ZM1036.14 31.5769C1035.48 32.5369 1034.73 33.5357 1033.87 34.5736L1036.96 37.1164C1037.88 36.0009 1038.7 34.9098 1039.44 33.8431L1036.14 31.5769ZM1033.91 34.528C1032.98 35.5902 1032.09 36.7158 1031.23 37.904L1034.47 40.246C1035.26 39.1542 1036.08 38.1265 1036.92 37.162L1033.91 34.528ZM1031.19 37.9656C1030.37 39.1841 1029.66 40.4402 1029.05 41.7338L1032.66 43.4462C1033.19 42.3331 1033.81 41.2459 1034.51 40.1844L1031.19 37.9656ZM1029.01 41.8139C1028.41 43.2418 1028.09 44.7082 1028.09 46.2H1032.09C1032.09 45.2852 1032.29 44.3448 1032.7 43.3661L1029.01 41.8139ZM1028.09 46.2V51.9H1032.09V46.2H1028.09ZM1030.09 49.9H1022.21V53.9H1030.09V49.9ZM1024.21 51.9V47.435H1020.21V51.9H1024.21ZM1024.21 47.435C1024.21 45.2989 1024.45 43.4628 1024.89 41.9044L1021.05 40.8056C1020.48 42.7939 1020.21 45.0111 1020.21 47.435H1024.21ZM1024.87 41.967C1025.37 40.4368 1026.17 38.9294 1027.31 37.4444L1024.14 35.0056C1022.75 36.8139 1021.71 38.7265 1021.07 40.743L1024.87 41.967ZM1027.33 37.4147C1029.68 34.2486 1031.67 31.558 1033.32 29.3426L1030.1 26.9574C1028.46 29.1753 1026.46 31.868 1024.12 35.0353L1027.33 37.4147ZM1033.32 29.3426C1035.15 26.8781 1036.21 24.2624 1036.37 21.5159L1032.37 21.2941C1032.27 23.1076 1031.57 24.9886 1030.1 26.9574L1033.32 29.3426ZM1036.37 21.405C1036.37 19.9794 1036.27 18.5549 1036.06 17.1322L1032.1 17.6978C1032.28 18.9351 1032.37 20.1706 1032.37 21.405H1036.37ZM1036.07 17.1448C1035.84 15.5218 1035.36 14.0281 1034.57 12.696L1031.13 14.724C1031.61 15.5453 1031.94 16.5215 1032.1 17.6852L1036.07 17.1448ZM1034.6 12.7387C1033.78 11.2617 1032.59 10.0895 1031.1 9.22415L1029.09 12.6859C1030 13.2139 1030.66 13.8783 1031.1 14.6813L1034.6 12.7387ZM1031.1 9.22415C1029.49 8.29318 1027.52 7.91 1025.34 7.91V11.91C1027.09 11.91 1028.29 12.2235 1029.09 12.6859L1031.1 9.22415ZM1025.34 7.91C1023.59 7.91 1021.93 8.29498 1020.42 9.09016L1022.29 12.6298C1023.18 12.1583 1024.19 11.91 1025.34 11.91V7.91ZM1020.46 9.07114C1019.06 9.77143 1017.86 10.7454 1016.86 11.9738L1019.96 14.4962C1020.61 13.698 1021.37 13.0886 1022.25 12.6488L1020.46 9.07114ZM1016.85 11.9856C1015.93 13.1293 1015.23 14.4413 1014.72 15.8993L1018.49 17.2207C1018.87 16.1454 1019.37 15.2407 1019.97 14.4844L1016.85 11.9856ZM1014.72 15.8993C1014.21 17.3362 1013.92 18.7914 1013.85 20.2601L1017.84 20.4599C1017.9 19.3953 1018.11 18.3172 1018.49 17.2207L1014.72 15.8993ZM1016.13 18.3806L1008.25 17.2406L1007.67 21.1994L1015.56 22.3394L1016.13 18.3806ZM1009.94 19.4843C1010.3 16.8127 1010.97 14.5723 1011.92 12.7259L1008.37 10.8941C1007.16 13.2277 1006.38 15.9273 1005.98 18.9557L1009.94 19.4843ZM1011.93 12.7044C1012.91 10.7493 1014.09 9.19207 1015.46 7.99142L1012.81 4.98857C1011.01 6.57459 1009.53 8.56402 1008.36 10.9156L1011.93 12.7044ZM1015.46 7.99142C1016.84 6.77497 1018.37 5.90071 1020.07 5.35341L1018.84 1.54658C1016.61 2.26595 1014.6 3.41836 1012.81 4.98857L1015.46 7.99142ZM1020.1 5.34137C1021.92 4.71908 1023.82 4.405 1025.82 4.405V0.404997C1023.39 0.404997 1021.05 0.787579 1018.8 1.55862L1020.1 5.34137ZM1025.82 4.405C1030.96 4.405 1034.54 5.8146 1036.9 8.33288L1039.82 5.59711C1036.48 2.03539 1031.7 0.404997 1025.82 0.404997V4.405ZM1036.9 8.33288C1039.33 10.9256 1040.63 14.4507 1040.63 19.125H1044.63C1044.63 13.666 1043.09 9.08443 1039.82 5.59711L1036.9 8.33288ZM1024.02 69V60.545H1020.02V69H1024.02ZM1022.02 62.545H1030V58.545H1022.02V62.545ZM1028 60.545V69H1032V60.545H1028ZM1030 67H1022.02V71H1030V67Z" fill="white" fill-opacity="0.04"/>
</svg>
